-- Merging decision tree log ---
manifest
ADDED from C:\Users\Usuario\Desktop\lista_compras-master\app\src\main\AndroidManifest.xml:2:1-21:12
INJECTED from C:\Users\Usuario\Desktop\lista_compras-master\app\src\main\AndroidManifest.xml:2:1-21:12
INJECTED from C:\Users\Usuario\Desktop\lista_compras-master\app\src\main\AndroidManifest.xml:2:1-21:12
INJECTED from C:\Users\Usuario\Desktop\lista_compras-master\app\src\main\AndroidManifest.xml:2:1-21:12
MERGED from [com.android.support:appcompat-v7:27.1.1] C:\Users\Usuario\.gradle\caches\transforms-1\files-1.1\appcompat-v7-27.1.1.aar\d7ce87aa0c5d048f1093311fa0a5259c\AndroidManifest.xml:17:1-22:12
MERGED from [com.android.support.constraint:constraint-layout:1.1.2] C:\Users\Usuario\.gradle\caches\transforms-1\files-1.1\constraint-layout-1.1.2.aar\f9c30b6aae7863d32871f880e43fb0c8\AndroidManifest.xml:2:1-11:12
MERGED from [com.android.support:support-fragment:27.1.1] C:\Users\Usuario\.gradle\caches\transforms-1\files-1.1\support-fragment-27.1.1.aar\968d63f43c78615473be85231451e562\AndroidManifest.xml:17:1-22:12
MERGED from [com.android.support:animated-vector-drawable:27.1.1] C:\Users\Usuario\.gradle\caches\transforms-1\files-1.1\animated-vector-drawable-27.1.1.aar\66f74f82028f171dc95a266338e7d667\AndroidManifest.xml:17:1-22:12
MERGED from [com.android.support:support-core-ui:27.1.1] C:\Users\Usuario\.gradle\caches\transforms-1\files-1.1\support-core-ui-27.1.1.aar\10a05aafb19188ea39dda709c9458364\AndroidManifest.xml:17:1-22:12
MERGED from [com.android.support:support-core-utils:27.1.1] C:\Users\Usuario\.gradle\caches\transforms-1\files-1.1\support-core-utils-27.1.1.aar\14cb3b5a59d1e8350ef31317732dc00e\AndroidManifest.xml:17:1-22:12
MERGED from [com.android.support:support-vector-drawable:27.1.1] C:\Users\Usuario\.gradle\caches\transforms-1\files-1.1\support-vector-drawable-27.1.1.aar\bf8b305206736c7ea228c5d0752bf4b5\AndroidManifest.xml:17:1-22:12
MERGED from [com.android.support:support-compat:27.1.1] C:\Users\Usuario\.gradle\caches\transforms-1\files-1.1\support-compat-27.1.1.aar\e1fdf687d7a9593fef71e8886e8de214\AndroidManifest.xml:17:1-22:12
MERGED from [android.arch.lifecycle:livedata-core:1.1.0] C:\Users\Usuario\.gradle\caches\transforms-1\files-1.1\livedata-core-1.1.0.aar\61709122e2652372d2e7ae0867f84dfb\AndroidManifest.xml:17:1-22:12
MERGED from [android.arch.lifecycle:viewmodel:1.1.0] C:\Users\Usuario\.gradle\caches\transforms-1\files-1.1\viewmodel-1.1.0.aar\0ab1633e726416b7dd17002ddca02222\AndroidManifest.xml:17:1-22:12
MERGED from [android.arch.lifecycle:runtime:1.1.0] C:\Users\Usuario\.gradle\caches\transforms-1\files-1.1\runtime-1.1.0.aar\d90169ab67ec62a2b816b89050d5653d\AndroidManifest.xml:17:1-22:12
MERGED from [android.arch.core:runtime:1.1.0] C:\Users\Usuario\.gradle\caches\transforms-1\files-1.1\runtime-1.1.0.aar\a81bcc8c4289baf0e17100786cfd2407\AndroidManifest.xml:17:1-22:12
INJECTED from C:\Users\Usuario\Desktop\lista_compras-master\app\src\main\AndroidManifest.xml:2:1-21:12
INJECTED from C:\Users\Usuario\Desktop\lista_compras-master\app\src\main\AndroidManifest.xml:2:1-21:12
INJECTED from C:\Users\Usuario\Desktop\lista_compras-master\app\src\main\AndroidManifest.xml:2:1-21:12
	package
		ADDED from C:\Users\Usuario\Desktop\lista_compras-master\app\src\main\AndroidManifest.xml:3:5-57
		INJECTED from C:\Users\Usuario\Desktop\lista_compras-master\app\src\main\AndroidManifest.xml
		INJECTED from C:\Users\Usuario\Desktop\lista_compras-master\app\src\main\AndroidManifest.xml
	android:versionName
		INJECTED from C:\Users\Usuario\Desktop\lista_compras-master\app\src\main\AndroidManifest.xml
		ADDED from C:\Users\Usuario\Desktop\lista_compras-master\app\src\main\AndroidManifest.xml:2:1-21:12
		INJECTED from C:\Users\Usuario\Desktop\lista_compras-master\app\src\main\AndroidManifest.xml
	android:versionCode
		INJECTED from C:\Users\Usuario\Desktop\lista_compras-master\app\src\main\AndroidManifest.xml
		ADDED from C:\Users\Usuario\Desktop\lista_compras-master\app\src\main\AndroidManifest.xml:2:1-21:12
		INJECTED from C:\Users\Usuario\Desktop\lista_compras-master\app\src\main\AndroidManifest.xml
	xmlns:android
		ADDED from C:\Users\Usuario\Desktop\lista_compras-master\app\src\main\AndroidManifest.xml:2:11-69
application
ADDED from C:\Users\Usuario\Desktop\lista_compras-master\app\src\main\AndroidManifest.xml:5:5-19:19
MERGED from [com.android.support.constraint:constraint-layout:1.1.2] C:\Users\Usuario\.gradle\caches\transforms-1\files-1.1\constraint-layout-1.1.2.aar\f9c30b6aae7863d32871f880e43fb0c8\AndroidManifest.xml:9:5-20
MERGED from [com.android.support.constraint:constraint-layout:1.1.2] C:\Users\Usuario\.gradle\caches\transforms-1\files-1.1\constraint-layout-1.1.2.aar\f9c30b6aae7863d32871f880e43fb0c8\AndroidManifest.xml:9:5-20
	android:supportsRtl
		ADDED from C:\Users\Usuario\Desktop\lista_compras-master\app\src\main\AndroidManifest.xml:10:9-35
	android:label
		ADDED from C:\Users\Usuario\Desktop\lista_compras-master\app\src\main\AndroidManifest.xml:8:9-41
	android:roundIcon
		ADDED from C:\Users\Usuario\Desktop\lista_compras-master\app\src\main\AndroidManifest.xml:9:9-54
	android:icon
		ADDED from C:\Users\Usuario\Desktop\lista_compras-master\app\src\main\AndroidManifest.xml:7:9-43
	android:allowBackup
		ADDED from C:\Users\Usuario\Desktop\lista_compras-master\app\src\main\AndroidManifest.xml:6:9-35
	android:theme
		ADDED from C:\Users\Usuario\Desktop\lista_compras-master\app\src\main\AndroidManifest.xml:11:9-40
activity#facci.pm.ta3.sqlite.trabajoautonomo3sqlite.MainActivity
ADDED from C:\Users\Usuario\Desktop\lista_compras-master\app\src\main\AndroidManifest.xml:12:9-18:20
	android:name
		ADDED from C:\Users\Usuario\Desktop\lista_compras-master\app\src\main\AndroidManifest.xml:12:19-47
intent-filter#action:name:android.intent.action.MAIN+category:name:android.intent.category.LAUNCHER
ADDED from C:\Users\Usuario\Desktop\lista_compras-master\app\src\main\AndroidManifest.xml:13:13-17:29
action#android.intent.action.MAIN
ADDED from C:\Users\Usuario\Desktop\lista_compras-master\app\src\main\AndroidManifest.xml:14:17-69
	android:name
		ADDED from C:\Users\Usuario\Desktop\lista_compras-master\app\src\main\AndroidManifest.xml:14:25-66
category#android.intent.category.LAUNCHER
ADDED from C:\Users\Usuario\Desktop\lista_compras-master\app\src\main\AndroidManifest.xml:16:17-77
	android:name
		ADDED from C:\Users\Usuario\Desktop\lista_compras-master\app\src\main\AndroidManifest.xml:16:27-74
uses-sdk
INJECTED from C:\Users\Usuario\Desktop\lista_compras-master\app\src\main\AndroidManifest.xml reason: use-sdk injection requested
INJECTED from C:\Users\Usuario\Desktop\lista_compras-master\app\src\main\AndroidManifest.xml
INJECTED from C:\Users\Usuario\Desktop\lista_compras-master\app\src\main\AndroidManifest.xml
MERGED from [com.android.support:appcompat-v7:27.1.1] C:\Users\Usuario\.gradle\caches\transforms-1\files-1.1\appcompat-v7-27.1.1.aar\d7ce87aa0c5d048f1093311fa0a5259c\AndroidManifest.xml:20:5-44
MERGED from [com.android.support:appcompat-v7:27.1.1] C:\Users\Usuario\.gradle\caches\transforms-1\files-1.1\appcompat-v7-27.1.1.aar\d7ce87aa0c5d048f1093311fa0a5259c\AndroidManifest.xml:20:5-44
MERGED from [com.android.support.constraint:constraint-layout:1.1.2] C:\Users\Usuario\.gradle\caches\transforms-1\files-1.1\constraint-layout-1.1.2.aar\f9c30b6aae7863d32871f880e43fb0c8\AndroidManifest.xml:5:5-7:41
MERGED from [com.android.support.constraint:constraint-layout:1.1.2] C:\Users\Usuario\.gradle\caches\transforms-1\files-1.1\constraint-layout-1.1.2.aar\f9c30b6aae7863d32871f880e43fb0c8\AndroidManifest.xml:5:5-7:41
MERGED from [com.android.support:support-fragment:27.1.1] C:\Users\Usuario\.gradle\caches\transforms-1\files-1.1\support-fragment-27.1.1.aar\968d63f43c78615473be85231451e562\AndroidManifest.xml:20:5-44
MERGED from [com.android.support:support-fragment:27.1.1] C:\Users\Usuario\.gradle\caches\transforms-1\files-1.1\support-fragment-27.1.1.aar\968d63f43c78615473be85231451e562\AndroidManifest.xml:20:5-44
MERGED from [com.android.support:animated-vector-drawable:27.1.1] C:\Users\Usuario\.gradle\caches\transforms-1\files-1.1\animated-vector-drawable-27.1.1.aar\66f74f82028f171dc95a266338e7d667\AndroidManifest.xml:20:5-44
MERGED from [com.android.support:animated-vector-drawable:27.1.1] C:\Users\Usuario\.gradle\caches\transforms-1\files-1.1\animated-vector-drawable-27.1.1.aar\66f74f82028f171dc95a266338e7d667\AndroidManifest.xml:20:5-44
MERGED from [com.android.support:support-core-ui:27.1.1] C:\Users\Usuario\.gradle\caches\transforms-1\files-1.1\support-core-ui-27.1.1.aar\10a05aafb19188ea39dda709c9458364\AndroidManifest.xml:20:5-44
MERGED from [com.android.support:support-core-ui:27.1.1] C:\Users\Usuario\.gradle\caches\transforms-1\files-1.1\support-core-ui-27.1.1.aar\10a05aafb19188ea39dda709c9458364\AndroidManifest.xml:20:5-44
MERGED from [com.android.support:support-core-utils:27.1.1] C:\Users\Usuario\.gradle\caches\transforms-1\files-1.1\support-core-utils-27.1.1.aar\14cb3b5a59d1e8350ef31317732dc00e\AndroidManifest.xml:20:5-44
MERGED from [com.android.support:support-core-utils:27.1.1] C:\Users\Usuario\.gradle\caches\transforms-1\files-1.1\support-core-utils-27.1.1.aar\14cb3b5a59d1e8350ef31317732dc00e\AndroidManifest.xml:20:5-44
MERGED from [com.android.support:support-vector-drawable:27.1.1] C:\Users\Usuario\.gradle\caches\transforms-1\files-1.1\support-vector-drawable-27.1.1.aar\bf8b305206736c7ea228c5d0752bf4b5\AndroidManifest.xml:20:5-44
MERGED from [com.android.support:support-vector-drawable:27.1.1] C:\Users\Usuario\.gradle\caches\transforms-1\files-1.1\support-vector-drawable-27.1.1.aar\bf8b305206736c7ea228c5d0752bf4b5\AndroidManifest.xml:20:5-44
MERGED from [com.android.support:support-compat:27.1.1] C:\Users\Usuario\.gradle\caches\transforms-1\files-1.1\support-compat-27.1.1.aar\e1fdf687d7a9593fef71e8886e8de214\AndroidManifest.xml:20:5-44
MERGED from [com.android.support:support-compat:27.1.1] C:\Users\Usuario\.gradle\caches\transforms-1\files-1.1\support-compat-27.1.1.aar\e1fdf687d7a9593fef71e8886e8de214\AndroidManifest.xml:20:5-44
MERGED from [android.arch.lifecycle:livedata-core:1.1.0] C:\Users\Usuario\.gradle\caches\transforms-1\files-1.1\livedata-core-1.1.0.aar\61709122e2652372d2e7ae0867f84dfb\AndroidManifest.xml:20:5-44
MERGED from [android.arch.lifecycle:livedata-core:1.1.0] C:\Users\Usuario\.gradle\caches\transforms-1\files-1.1\livedata-core-1.1.0.aar\61709122e2652372d2e7ae0867f84dfb\AndroidManifest.xml:20:5-44
MERGED from [android.arch.lifecycle:viewmodel:1.1.0] C:\Users\Usuario\.gradle\caches\transforms-1\files-1.1\viewmodel-1.1.0.aar\0ab1633e726416b7dd17002ddca02222\AndroidManifest.xml:20:5-44
MERGED from [android.arch.lifecycle:viewmodel:1.1.0] C:\Users\Usuario\.gradle\caches\transforms-1\files-1.1\viewmodel-1.1.0.aar\0ab1633e726416b7dd17002ddca02222\AndroidManifest.xml:20:5-44
MERGED from [android.arch.lifecycle:runtime:1.1.0] C:\Users\Usuario\.gradle\caches\transforms-1\files-1.1\runtime-1.1.0.aar\d90169ab67ec62a2b816b89050d5653d\AndroidManifest.xml:20:5-44
MERGED from [android.arch.lifecycle:runtime:1.1.0] C:\Users\Usuario\.gradle\caches\transforms-1\files-1.1\runtime-1.1.0.aar\d90169ab67ec62a2b816b89050d5653d\AndroidManifest.xml:20:5-44
MERGED from [android.arch.core:runtime:1.1.0] C:\Users\Usuario\.gradle\caches\transforms-1\files-1.1\runtime-1.1.0.aar\a81bcc8c4289baf0e17100786cfd2407\AndroidManifest.xml:20:5-44
MERGED from [android.arch.core:runtime:1.1.0] C:\Users\Usuario\.gradle\caches\transforms-1\files-1.1\runtime-1.1.0.aar\a81bcc8c4289baf0e17100786cfd2407\AndroidManifest.xml:20:5-44
INJECTED from C:\Users\Usuario\Desktop\lista_compras-master\app\src\main\AndroidManifest.xml
INJECTED from C:\Users\Usuario\Desktop\lista_compras-master\app\src\main\AndroidManifest.xml
	android:targetSdkVersion
		INJECTED from C:\Users\Usuario\Desktop\lista_compras-master\app\src\main\AndroidManifest.xml
		ADDED from C:\Users\Usuario\Desktop\lista_compras-master\app\src\main\AndroidManifest.xml
		INJECTED from C:\Users\Usuario\Desktop\lista_compras-master\app\src\main\AndroidManifest.xml
	android:minSdkVersion
		INJECTED from C:\Users\Usuario\Desktop\lista_compras-master\app\src\main\AndroidManifest.xml
		ADDED from C:\Users\Usuario\Desktop\lista_compras-master\app\src\main\AndroidManifest.xml
		INJECTED from C:\Users\Usuario\Desktop\lista_compras-master\app\src\main\AndroidManifest.xml
